<define-tag pagetitle>DLA-981-1 apng2gif</define-tag>
<define-tag report_date>2017-6-7</define-tag>
<define-tag secrefs>CVE-2017-6960 Bug##854367</define-tag>
<define-tag packages>apng2gif</define-tag>
<define-tag isvulnerable>yes</define-tag>
<define-tag fixed>yes</define-tag>
<define-tag fixed-section>no</define-tag>

#use wml::debian::security

