<define-tag pagetitle>DLA-987-1 request-tracker4</define-tag>
<define-tag report_date>2017-6-15</define-tag>
<define-tag secrefs>CVE-2016-6127 CVE-2017-5361 CVE-2017-5943 CVE-2017-5944</define-tag>
<define-tag packages>request-tracker4</define-tag>
<define-tag isvulnerable>yes</define-tag>
<define-tag fixed>yes</define-tag>
<define-tag fixed-section>no</define-tag>

#use wml::debian::security

