<define-tag pagetitle>DLA-885-1 python-django</define-tag>
<define-tag report_date>2017-4-5</define-tag>
<define-tag secrefs>CVE-2017-7233 CVE-2017-7234 Bug##859515 Bug##859516</define-tag>
<define-tag packages>python-django</define-tag>
<define-tag isvulnerable>yes</define-tag>
<define-tag fixed>yes</define-tag>
<define-tag fixed-section>no</define-tag>

#use wml::debian::security

