<define-tag pagetitle>DLA-873-1 apt-cacher</define-tag>
<define-tag report_date>2017-3-27</define-tag>
<define-tag secrefs>Bug##858739</define-tag>
<define-tag packages>apt-cacher</define-tag>
<define-tag isvulnerable>yes</define-tag>
<define-tag fixed>yes</define-tag>
<define-tag fixed-section>no</define-tag>

#use wml::debian::security

