<define-tag pagetitle>DLA-1006-1 libarchive</define-tag>
<define-tag report_date>2017-6-30</define-tag>
<define-tag secrefs>CVE-2016-10209 CVE-2016-10349 CVE-2016-10350 Bug#859456 Bug#861609</define-tag>
<define-tag packages>libarchive</define-tag>
<define-tag isvulnerable>yes</define-tag>
<define-tag fixed>yes</define-tag>
<define-tag fixed-section>no</define-tag>

#use wml::debian::security

