<define-tag pagetitle>DLA-1204-1 evince</define-tag>
<define-tag report_date>2017-12-11</define-tag>
<define-tag secrefs>CVE-2017-1000159</define-tag>
<define-tag packages>evince</define-tag>
<define-tag isvulnerable>yes</define-tag>
<define-tag fixed>yes</define-tag>
<define-tag fixed-section>no</define-tag>

#use wml::debian::security

