<define-tag pagetitle>DLA-1091-1 unrar-free</define-tag>
<define-tag report_date>2017-9-7</define-tag>
<define-tag secrefs>CVE-2017-14120 Bug##874059</define-tag>
<define-tag packages>unrar-free</define-tag>
<define-tag isvulnerable>yes</define-tag>
<define-tag fixed>yes</define-tag>
<define-tag fixed-section>no</define-tag>

#use wml::debian::security

