<define-tag pagetitle>DLA-1370-1 quassel</define-tag>
<define-tag report_date>2018-5-4</define-tag>
<define-tag secrefs>CVE-2018-1000178</define-tag>
<define-tag packages>quassel</define-tag>
<define-tag isvulnerable>yes</define-tag>
<define-tag fixed>yes</define-tag>
<define-tag fixed-section>no</define-tag>

#use wml::debian::security

