<define-tag pagetitle>DLA-1309-1 curl</define-tag>
<define-tag report_date>2018-3-18</define-tag>
<define-tag secrefs>CVE-2018-1000120 CVE-2018-1000121 CVE-2018-1000122</define-tag>
<define-tag packages>curl</define-tag>
<define-tag isvulnerable>yes</define-tag>
<define-tag fixed>yes</define-tag>
<define-tag fixed-section>no</define-tag>

#use wml::debian::security

