<define-tag pagetitle>DLA-1500-1 openssh</define-tag>
<define-tag report_date>2018-9-10</define-tag>
<define-tag secrefs>CVE-2015-5352 CVE-2015-5600 CVE-2015-6563 CVE-2015-6564 CVE-2016-1908 CVE-2016-3115 CVE-2016-6515 CVE-2016-10009 CVE-2016-10011 CVE-2016-10012 CVE-2016-10708 CVE-2017-15906 Bug#790798 Bug#793616 Bug#795711 Bug#848716 Bug#848717</define-tag>
<define-tag packages>openssh</define-tag>
<define-tag isvulnerable>yes</define-tag>
<define-tag fixed>yes</define-tag>
<define-tag fixed-section>no</define-tag>

#use wml::debian::security

