<define-tag pagetitle>DLA-1565-1 glusterfs</define-tag>
<define-tag report_date>2018-11-5</define-tag>
<define-tag secrefs>CVE-2018-14651 CVE-2018-14652 CVE-2018-14653 CVE-2018-14659 CVE-2018-14661</define-tag>
<define-tag packages>glusterfs</define-tag>
<define-tag isvulnerable>yes</define-tag>
<define-tag fixed>yes</define-tag>
<define-tag fixed-section>no</define-tag>

#use wml::debian::security

