<define-tag pagetitle>DLA-1280-1 pound</define-tag>
<define-tag report_date>2018-2-12</define-tag>
<define-tag secrefs>CVE-2016-10711 Bug#888786</define-tag>
<define-tag packages>pound</define-tag>
<define-tag isvulnerable>yes</define-tag>
<define-tag fixed>yes</define-tag>
<define-tag fixed-section>no</define-tag>

#use wml::debian::security

