<define-tag pagetitle>DLA-1296-1 xmltooling</define-tag>
<define-tag report_date>2018-2-28</define-tag>
<define-tag secrefs>CVE-2018-0489</define-tag>
<define-tag packages>xmltooling</define-tag>
<define-tag isvulnerable>yes</define-tag>
<define-tag fixed>yes</define-tag>
<define-tag fixed-section>no</define-tag>

#use wml::debian::security

