<define-tag pagetitle>DSA-4400-1 openssl1.0</define-tag>
<define-tag report_date>2019-2-28</define-tag>
<define-tag secrefs>CVE-2019-1559</define-tag>
<define-tag packages>openssl1.0</define-tag>
<define-tag isvulnerable>yes</define-tag>
<define-tag fixed>yes</define-tag>
<define-tag fixed-section>no</define-tag>

#use wml::debian::security



</dl>
