<define-tag pagetitle>DSA-4364-1 ruby-loofah</define-tag>
<define-tag report_date>2019-1-08</define-tag>
<define-tag secrefs>CVE-2018-16468</define-tag>
<define-tag packages>ruby-loofah</define-tag>
<define-tag isvulnerable>yes</define-tag>
<define-tag fixed>yes</define-tag>
<define-tag fixed-section>no</define-tag>

#use wml::debian::security



</dl>
