<define-tag pagetitle>DLA-1739-1 rails</define-tag>
<define-tag report_date>2019-3-31</define-tag>
<define-tag secrefs>CVE-2019-5418 CVE-2019-5419 Bug#924520</define-tag>
<define-tag packages>rails</define-tag>
<define-tag isvulnerable>yes</define-tag>
<define-tag fixed>yes</define-tag>
<define-tag fixed-section>no</define-tag>

#use wml::debian::security

