<define-tag pagetitle>DLA-662-1 quagga</define-tag>
<define-tag report_date>2016-10-18</define-tag>
<define-tag secrefs>CVE-2016-1245 Bug#841162</define-tag>
<define-tag packages>quagga</define-tag>
<define-tag isvulnerable>yes</define-tag>
<define-tag fixed>yes</define-tag>
<define-tag fixed-section>no</define-tag>

#use wml::debian::security

