<define-tag pagetitle>DLA-687-1 tre</define-tag>
<define-tag report_date>2016-10-27</define-tag>
<define-tag secrefs>CVE-2016-8859 Bug#842169</define-tag>
<define-tag packages>tre</define-tag>
<define-tag isvulnerable>yes</define-tag>
<define-tag fixed>yes</define-tag>
<define-tag fixed-section>no</define-tag>

#use wml::debian::security

