<define-tag pagetitle>DLA-576-1 libdbd-mysql-perl</define-tag>
<define-tag report_date>2016-7-30</define-tag>
<define-tag secrefs>CVE-2014-9906 CVE-2015-8949</define-tag>
<define-tag packages>libdbd-mysql-perl</define-tag>
<define-tag isvulnerable>yes</define-tag>
<define-tag fixed>yes</define-tag>
<define-tag fixed-section>no</define-tag>

#use wml::debian::security

